//////////////////////////////////////////////////////////////////////////////
//	DLX Start Up Code - D. J. Viner
//////////////////////////////////////////////////////////////////////////////
//	Requires auto.o to be pre-loaded. Must be reassembled if auto.a is
//	reassembled (this means that the files that include this include must be
//	reassembled).
//
//////////////////////////////////////////////////////////////////////////////
//
//	1.0.0	15.12.1995	Created from macro.i
//	1.0.1	03.04.2001	Now uses new stack initialisation macro.
//
//////////////////////////////////////////////////////////////////////////////

        INCLUDE     macro.i
        INCLUDE     auto.i

        NODEBUG     // Don't debug or list this include
        NOLIST

//////////////////////////////////////////////////////////////////////////////
// Start-up coding. Note that the stack pointer initialisation assumes that
// there is at least 32K of memory available. Expect trouble if you have set
// it to anything less!
//////////////////////////////////////////////////////////////////////////////

        LPC     R29         // Initialise base pointer for relocation
		INITSTACK			// Initialise stack pointer
        JSRA    InitInt     // Initialise interrupt handling

//////////////////////////////////////////////////////////////////////////////

        DEBUG       // Turn on any debugging/listing as set by
        LIST        // the DASM command line

//////////////////////////////////////////////////////////////////////////////


